2019-01-29 10:06:38 anonymous view All subject filtering by grade 1
2019-01-29 10:06:40 anonymous view All chapters filtering by subject 1
2019-01-29 10:06:42 anonymous view All modules filtering by chapter 1
2019-01-29 10:11:49 anonymous view All subject filtering by grade 1
2019-01-29 10:11:52 anonymous view All chapters filtering by subject 1
2019-01-29 10:11:55 anonymous view All modules filtering by chapter 1
2019-01-29 10:12:20 Faheem logged successfully
2019-01-29 10:12:21 Faheem view All Materials filtering by module1
2019-01-29 10:12:41 Faheem rated successfully material name : Another Video
2019-01-29 10:12:44 Faheem view All Materials filtering by module1
2019-01-29 10:12:54 Faheem view All subject filtering by grade 1
2019-01-29 10:12:55 Faheem view All chapters filtering by subject 1
2019-01-29 10:13:00 Faheem view All modules filtering by chapter 1
2019-01-29 10:13:02 Faheem view All Materials filtering by module1
2019-01-29 12:05:02 Faheem logged successfully
2019-01-29 12:05:22 Faheem view All subject filtering by grade 1
2019-01-29 12:05:27 Faheem view All chapters filtering by subject 1
2019-01-29 12:05:39 Faheem view All modules filtering by chapter 1
2019-01-29 12:05:52 Faheem view All Materials filtering by module1
2019-01-29 12:08:44 Faheem rated successfully material name : 4.1.0 அறிமுகம்
2019-01-29 12:08:47 Faheem view All Materials filtering by module1
2019-01-29 12:11:47 Faheem view All subject filtering by grade 1
2019-01-29 12:11:49 Faheem view All chapters filtering by subject 1
2019-01-29 12:11:51 Faheem view All modules filtering by chapter 1
2019-01-29 12:11:53 Faheem view All Materials filtering by module1
2019-01-29 12:12:22 Faheem view All subject filtering by grade 1
2019-01-29 12:13:07 anonymous view All subject filtering by grade 2
2019-01-29 12:13:14 anonymous view All chapters filtering by subject 3
2019-01-29 12:13:17 anonymous view All modules filtering by chapter 16
2019-01-29 12:13:39 anonymous view All chapters filtering by subject 3
2019-01-29 12:13:43 anonymous view All modules filtering by chapter 16
2019-01-29 12:14:24 anonymous view All subject filtering by grade 2
2019-01-29 12:14:26 anonymous view All chapters filtering by subject 3
2019-01-29 12:14:29 anonymous view All modules filtering by chapter 16
2019-01-29 12:14:37 anonymous view All subject filtering by grade 1
2019-01-29 12:14:39 anonymous view All chapters filtering by subject 1
2019-01-29 12:14:40 anonymous view All modules filtering by chapter 1
2019-01-29 12:17:06 Faheem logged successfully
2019-01-29 12:17:07 Faheem view All Materials filtering by module1
2019-01-29 12:17:13 Faheem view All subject filtering by grade 1
2019-01-29 12:17:15 Faheem view All chapters filtering by subject 1
2019-01-29 12:17:19 Faheem view All modules filtering by chapter 1
2019-01-29 12:17:21 Faheem view All Materials filtering by module1
2019-01-29 12:17:35 Faheem rated successfully material name : 4.1.0 அறிமுகம்
2019-01-29 12:17:36 Faheem view All Materials filtering by module1
2019-01-29 14:04:34 anonymous faild to log System
2019-01-29 14:04:45 anonymous faild to log System
2019-01-29 15:01:16 anonymous view All subject filtering by grade 1
2019-01-29 15:01:18 anonymous view All chapters filtering by subject 1
2019-01-29 15:01:25 anonymous view All modules filtering by chapter 1
2019-01-29 15:01:46 Faheem logged successfully
2019-01-29 15:01:48 Faheem view All Materials filtering by module1
2019-01-29 15:02:01 Faheem view All modules filtering by chapter 1
2019-01-29 15:02:03 Faheem view All Materials filtering by module1
2019-01-29 15:02:10 Faheem view All subject filtering by grade 1
2019-01-29 15:02:13 Faheem view All chapters filtering by subject 2
2019-01-29 15:02:16 Faheem view All subject filtering by grade 1
2019-01-29 15:02:22 Faheem view All chapters filtering by subject 1
2019-01-29 15:02:25 Faheem view All modules filtering by chapter 1
2019-01-29 15:02:28 Faheem view All Materials filtering by module1
2019-01-29 15:03:13 Faheem rated successfully material name : 4.1.0 அறிமுகம்
2019-01-29 15:03:14 Faheem view All Materials filtering by module1
2019-01-29 15:03:37 Faheem rated successfully material name : Another Video
2019-01-29 15:03:39 Faheem view All Materials filtering by module1
2019-01-29 15:06:55 Faheem logged successfully
2019-01-29 15:07:00 Faheem view All subject filtering by grade 1
2019-01-29 15:07:02 Faheem view All chapters filtering by subject 1
2019-01-29 15:07:07 Faheem view All modules filtering by chapter 1
2019-01-29 15:07:12 Faheem view All subject filtering by grade 1
2019-01-29 15:07:17 Faheem view All subject filtering by grade 1
2019-01-29 15:07:19 Faheem view All chapters filtering by subject 1
2019-01-29 15:07:21 Faheem view All modules filtering by chapter 1
2019-01-29 15:07:23 Faheem view All Materials filtering by module1
2019-01-29 15:08:03 Faheem rated successfully material name : Another Video
2019-01-29 15:08:04 Faheem view All Materials filtering by module1
2019-01-29 15:08:58 Faheem view All subject filtering by grade 1
2019-01-29 15:09:00 Faheem view All chapters filtering by subject 1
2019-01-29 15:09:03 Faheem view All modules filtering by chapter 1
2019-01-29 15:09:05 Faheem view All Materials filtering by module1
2019-01-29 15:09:29 Faheem view All subject filtering by grade 1
2019-01-29 15:10:48 Faheem logged successfully
2019-01-29 15:16:41 Faheem rated successfully material name : Another Video
2019-01-29 15:16:43 Faheem view All Materials filtering by module1
2019-01-29 15:18:04 anonymous view All subject filtering by grade 1
2019-01-29 15:18:06 anonymous view All chapters filtering by subject 1
2019-01-29 15:18:13 anonymous view All modules filtering by chapter 4
2019-01-29 15:18:25 madawa logged successfully
2019-01-29 15:18:26 madawa view All Materials filtering by module2
2019-01-29 15:18:27 anonymous faild to log System
2019-01-29 15:18:30 anonymous faild to log System
2019-01-29 15:18:32 anonymous faild to log System
2019-01-29 15:19:25 Faheem logged successfully
2019-01-29 15:19:28 Faheem view All subject filtering by grade 1
2019-01-29 15:19:29 Faheem view All chapters filtering by subject 1
2019-01-29 15:19:31 Faheem view All modules filtering by chapter 1
2019-01-29 15:19:32 Faheem view All Materials filtering by module1
2019-01-29 15:20:59 anonymous view All subject filtering by grade 1
2019-01-29 15:21:02 anonymous view All chapters filtering by subject 1
2019-01-29 15:21:05 anonymous view All modules filtering by chapter 1
2019-01-29 15:22:26 anonymous view All subject filtering by grade 1
2019-01-29 15:22:27 anonymous view All chapters filtering by subject 1
2019-01-29 15:22:29 anonymous view All modules filtering by chapter 4
2019-01-29 15:22:42 madawa logged successfully
2019-01-29 15:22:43 madawa view All Materials filtering by module2
2019-01-29 15:24:05 madawa view All subject filtering by grade 1
2019-01-29 15:24:13 anonymous view All subject filtering by grade 1
2019-01-29 15:24:15 anonymous view All chapters filtering by subject 1
2019-01-29 15:24:17 anonymous view All modules filtering by chapter 1
2019-01-29 15:24:39 anonymous faild to log System
2019-01-29 15:24:48 anonymous faild to log System
2019-01-29 15:25:10 madawa view All subject filtering by grade 1
2019-01-29 15:25:12 madawa view All chapters filtering by subject 1
2019-01-29 15:25:13 Faheem logged successfully
2019-01-29 15:25:13 Faheem view All Materials filtering by module1
2019-01-29 15:25:14 madawa view All modules filtering by chapter 4
2019-01-29 15:25:16 madawa view All Materials filtering by module2
2019-01-29 15:25:40 Faheem rated successfully material name : 4.1.0 அறிமுகம்
2019-01-29 15:25:42 Faheem view All Materials filtering by module1
2019-01-29 15:26:57 Faheem rated successfully material name : 4.1.0 அறிமுகம்
2019-01-29 15:26:58 Faheem view All Materials filtering by module1
2019-01-29 15:28:10 anonymous view All subject filtering by grade 1
2019-01-29 15:28:12 anonymous view All chapters filtering by subject 1
2019-01-29 15:28:14 anonymous view All modules filtering by chapter 1
2019-01-29 15:28:33 Faheem logged successfully
2019-01-29 15:28:33 Faheem view All Materials filtering by module1
2019-01-29 15:30:34 Faheem logged successfully
2019-01-29 15:30:40 Faheem view All subject filtering by grade 1
2019-01-29 15:30:41 Faheem view All chapters filtering by subject 1
2019-01-29 15:30:43 Faheem view All modules filtering by chapter 1
2019-01-29 15:30:44 Faheem view All Materials filtering by module1
2019-01-29 15:31:10 Faheem rated successfully material name : 4.1.0 அறிமுகம்
2019-01-29 15:31:11 Faheem view All Materials filtering by module1
2019-01-29 15:32:48 Faheem view All modules filtering by chapter 1
2019-01-29 15:32:49 Faheem view All Materials filtering by module1
2019-01-29 15:32:51 Faheem view All Materials filtering by module1
2019-01-29 15:38:21 anonymous view All subject filtering by grade 1
2019-01-29 15:38:23 anonymous view All chapters filtering by subject 1
2019-01-29 15:38:26 anonymous view All modules filtering by chapter 1
2019-01-29 15:40:53 anonymous view All subject filtering by grade 1
2019-01-29 15:40:56 anonymous view All chapters filtering by subject 1
2019-01-29 15:40:58 anonymous view All modules filtering by chapter 1
2019-01-29 15:41:31 Faheem logged successfully
2019-01-29 15:41:32 Faheem view All Materials filtering by module1
2019-01-29 15:47:41 anonymous view All subject filtering by grade 1
2019-01-29 15:47:43 anonymous view All chapters filtering by subject 1
2019-01-29 15:47:45 anonymous view All modules filtering by chapter 1
2019-01-29 15:48:03 Faheem logged successfully
2019-01-29 15:48:09 Faheem logged successfully
2019-01-29 15:48:18 Faheem logged successfully
2019-01-29 15:49:10 anonymous view All subject filtering by grade 1
2019-01-29 15:49:12 anonymous view All chapters filtering by subject 1
2019-01-29 15:49:13 anonymous view All modules filtering by chapter 1
2019-01-29 15:50:08 Faheem logged successfully
2019-01-29 15:50:09 Faheem view All Materials filtering by module1
2019-01-29 15:50:45 Faheem rated successfully material name : 4.1.0 அறிமுகம்
2019-01-29 15:50:46 Faheem view All Materials filtering by module1
2019-01-29 16:03:57 madawa view All Materials filtering by module2
2019-01-29 16:38:47 madawa view All subject filtering by grade 1
2019-01-29 16:38:48 madawa view All chapters filtering by subject 1
2019-01-29 16:38:51 madawa view All modules filtering by chapter 4
2019-01-29 16:38:53 madawa view All Materials filtering by module2
2019-01-29 16:39:18 madawa view All chapters filtering by subject 1
2019-01-29 16:39:23 madawa view All modules filtering by chapter 4
2019-01-29 16:39:26 madawa view All Materials filtering by module2
2019-01-29 16:39:55 madawa rated successfully material name : Another Video
2019-01-29 16:39:56 madawa view All Materials filtering by module2
2019-01-29 16:40:01 madawa rated successfully material name : Another Video
2019-01-29 16:40:02 madawa view All Materials filtering by module2
2019-01-29 16:49:06 madawa view All modules filtering by chapter 4
2019-01-29 16:49:09 madawa view All chapters filtering by subject 1
2019-01-29 16:49:12 madawa view All modules filtering by chapter 4
2019-01-29 16:49:16 madawa view All Materials filtering by module2
2019-01-29 16:49:19 madawa view All modules filtering by chapter 4
2019-01-29 16:49:20 madawa view All chapters filtering by subject 1
2019-01-29 16:49:21 madawa view All subject filtering by grade 1
2019-01-29 16:49:24 madawa view All chapters filtering by subject 2
2019-01-29 16:49:26 madawa view All subject filtering by grade 1
2019-01-29 17:21:15 anonymous view All subject filtering by grade 1
2019-01-29 17:21:17 anonymous view All chapters filtering by subject 1
2019-01-29 17:21:19 anonymous view All modules filtering by chapter 1
